^C:\USERS\REV\DESKTOP\개인폴더\김민규\자료구조\DS15\1\DEBUG\MAIN.OBJ
C:\USERS\REV\DESKTOP\개인폴더\김민규\자료구조\DS15\DEBUG\1.ILK
C:\USERS\REV\DESKTOP\개인폴더\김민규\자료구조\DS15\DEBUG\1.EXE
C:\USERS\REV\DESKTOP\개인폴더\김민규\자료구조\DS15\DEBUG\1.PDB
